module gitlab.com/thorchain/midgard

go 1.16

// Note, keep tendermint in sync with thornode tendermint.

require (
	github.com/99designs/gqlgen v0.12.2
	github.com/DataDog/zstd v1.4.5
	github.com/cosmos/go-bip39 v1.0.0 // indirect
	github.com/deepmap/oapi-codegen v1.6.1
	github.com/dgraph-io/ristretto v0.0.3 // indirect
	github.com/dgryski/go-farm v0.0.0-20200201041132-a6ae2369ad13 // indirect
	github.com/getkin/kin-openapi v0.53.0
	github.com/gobwas/httphead v0.1.0 // indirect
	github.com/gobwas/pool v0.2.1 // indirect
	github.com/gobwas/ws v1.0.4
	github.com/golang/snappy v0.0.2 // indirect
	github.com/hashicorp/golang-lru v0.5.4 // indirect
	github.com/jackc/pgx/v4 v4.10.1
	github.com/jarcoal/httpmock v1.0.7
	github.com/julienschmidt/httprouter v1.3.0
	github.com/kelseyhightower/envconfig v1.4.0
	github.com/lib/pq v1.3.0
	github.com/pascaldekloe/metrics v1.2.0
	github.com/prometheus/common v0.15.0 // indirect
	github.com/rs/zerolog v1.15.0
	github.com/sirupsen/logrus v1.8.1
	github.com/stretchr/testify v1.7.0
	github.com/tendermint/tendermint v0.34.14
	github.com/vektah/gqlparser/v2 v2.1.0
	golang.org/x/sys v0.0.0-20210903071746-97244b99971b
	google.golang.org/genproto v0.0.0-20201214200347-8c77b98c765d // indirect
	gopkg.in/yaml.v2 v2.4.0 // indirect
)
